<?xml version="1.0" encoding="UTF-8" standalone="no"?>
<!-- Created with Inkscape (http://www.inkscape.org/) -->

<svg
   xmlns:dc="http://purl.org/dc/elements/1.1/"
   xmlns:cc="http://creativecommons.org/ns#"
   xmlns:rdf="http://www.w3.org/1999/02/22-rdf-syntax-ns#"
   xmlns:svg="http://www.w3.org/2000/svg"
   xmlns="http://www.w3.org/2000/svg"
   xmlns:xlink="http://www.w3.org/1999/xlink"
   xmlns:sodipodi="http://sodipodi.sourceforge.net/DTD/sodipodi-0.dtd"
   xmlns:inkscape="http://www.inkscape.org/namespaces/inkscape"
   id="svg51479"
   version="1.1"
   inkscape:version="0.48.2 r9819"
   width="63"
   height="66"
   sodipodi:docname="meteorite_explode_bad.png">
  <metadata
     id="metadata51485">
    <rdf:RDF>
      <cc:Work
         rdf:about="">
        <dc:format>image/svg+xml</dc:format>
        <dc:type
           rdf:resource="http://purl.org/dc/dcmitype/StillImage" />
        <dc:title></dc:title>
      </cc:Work>
    </rdf:RDF>
  </metadata>
  <defs
     id="defs51483">
    <linearGradient
       id="linearGradient51532">
      <stop
         style="stop-color:#ff0000;stop-opacity:1;"
         offset="0"
         id="stop51534" />
      <stop
         style="stop-color:#000000;stop-opacity:1;"
         offset="1"
         id="stop51536" />
    </linearGradient>
    <radialGradient
       inkscape:collect="always"
       xlink:href="#linearGradient51532"
       id="radialGradient51538"
       cx="24.81987"
       cy="32.473785"
       fx="24.81987"
       fy="32.473785"
       r="19.220339"
       gradientTransform="matrix(-0.37620786,0.78260569,-0.72888162,-0.46615565,57.786016,17.476378)"
       gradientUnits="userSpaceOnUse" />
  </defs>
  <sodipodi:namedview
     pagecolor="#ffffff"
     bordercolor="#666666"
     borderopacity="1"
     objecttolerance="10"
     gridtolerance="10"
     guidetolerance="10"
     inkscape:pageopacity="0"
     inkscape:pageshadow="2"
     inkscape:window-width="1920"
     inkscape:window-height="1018"
     id="namedview51481"
     showgrid="false"
     inkscape:zoom="4.9166667"
     inkscape:cx="-33.762712"
     inkscape:cy="24"
     inkscape:window-x="-8"
     inkscape:window-y="-8"
     inkscape:window-maximized="1"
     inkscape:current-layer="svg51479" />
  <path
     sodipodi:type="arc"
     style="fill:url(#radialGradient51538);fill-opacity:1.0;stroke:none"
     id="path51527"
     sodipodi:cx="26.542374"
     sodipodi:cy="24.20339"
     sodipodi:rx="19.220339"
     sodipodi:ry="22.779661"
     d="m 45.762712,24.20339 a 19.220339,22.779661 0 1 1 -38.4406772,0 19.220339,22.779661 0 1 1 38.4406772,0 z"
     transform="matrix(1.6243387,0,0,1.2991072,-11.486683,4.7605936)" />
  <image
     width="48"
     height="48"
     xlink:href="data:image/png;base64,iVBORw0KGgoAAAANSUhEUgAAADAAAAAwCAYAAABXAvmHAAAABHNCSVQICAgIfAhkiAAAEvhJREFU aIGlmluMJdd1nr+19t5V59qX6Z6eG2dIakgNKZEMSYGUFFuRHUiyoZcgtmMlMSLlwQnyEOjBD0GM wHkOkAR5SQIYyEUGEjiRHQsBKAWIEEeJItiQZROMJJoUSZHDIefCnr6fW1XtvVceqs6ZpinKNlLV 1X26qnufdfnXvy77CP8fh0j7zbIhTrBkAKKufYKKFH3P+ce2YnXcsPPIxk/NTprPi/BZYAfYy9m+ HXrua3uvHn0jNfn7i8NKp7vz/GeVwf35pe6u5WGodEpsP7ZJzkYzjWaGWba8fmmUH/rkpWd7o/JX Nbh/tZjWTwEjERFgICIP55g/O9rp/8L8sNr3pf8jdSr1tKH9kz9dnPd9IoDZqVvaCgrgCnVnHt5g sFmmG79/h4/+2mPh4ge2w/ywvlLtVz8pymOW5bxkOzveHDx19NZ0c/LOLM+OK+p5VANEDBADEobX Ujl8/eTvnNya/pvFUa0ppoz9CNn+TAp0z0VEDRMRMctmvuesf6bnTm5O42f+ycf47n9+9UOP/+LV z1x4evtz8Sg+5INbd8EFFSFbZnKwYPb2jPokNtUkhmpSU00aqllDbBK2spAkMAe8Ebx79tX/+dZu PWva97X31+J9FShHQVzhbLa/WN07e22Tc09ukWKmGPpPPfrZK7/QG5e/ZBUjqzPeOaQ7tTWvHc2m Vk0qTZMszSxRzxLNPBLnkWYeaRaRGBOWjRQtDc/07I1v3fzb5Tj8x70fHvt62sQ/lwdcqaQq+9FO P156eueJ6X71BVU+mJO9duGx7ecuPLv1WmrSr158YvuX5neqgTPFe41OnHMiouIQAUVQcURL7E+P mU0qbJ7JCyMuEnERaapMbhKpNlLKWLbogvhyEP7ty//jxt+9/d09cGY5vb8LVgqICGbGcKevoe/z mQ+sfzH0/T8XFQ9gZpQ9b1sPrDdnH10vfOnpD8rGod6pihNFUZw4VASVzhOqmMHe4pjJbMZstoDK oIZUJ3JjpGjkZGAY2RhfHMyf/8rLT7/xyu1XuImISlrG3nsMvlLDoBgENz43yBtXxl8ohuHXLZpa tpxzNrJRDkoJpXepzll7Qm8QXM+X4sXh1RPUE0Rx6ggu4NXjuvub5RrrgxH9XokVRg4ZSsH1HL50 hJ7D950U45BTSOWTn3jkpS/u/PK3/9fe78l8t7LWEO9VYkWjoq0LNh5YGw62er+ZqrQpKoaggJT9 IMONHr1xoFgrxPdVyl7BMPRw4gidEk49fnlJIDhPcB4nntIVbJbrrPfHbAzXWBuOcKUj9wztKW6g +L5qOSoshPCJvVcO53f94e8X/cIf3T7J6t6rxD0FRHxOll1wnxufH34hxywdBUgoHIONHr31kmLs KUYeHSqbwzGlK/DicOrw4u9dGjolutcu4MUhqpRa0Pd9xmHAZn+NrcE6G/0xa/0+o36fgS9pJPbu XnvnZ9OrvZvjtcF3mlz7ye4s/8mofZcCGGmw3fvcYLv/yRxzLYIvysBws0d/raQcFxRjjxspo3Gf M/01HK71gAs4dTjnCOLxzuOkfealfe3V412BU7d0LCqKW12+ix1EIIU6sPXM4Cfefun2H/aq4Ws+ Bzc5mdrpBOdPKWMAIbj9onCQTMtBQW8cKEcFvVErvB86wtCzNVjHoagqQRwqDqf3hHaiaCd88IHg AyDkbGDge55MZjab4axVSBBEDDPDwBnY7KTaevIXH/6NF/71m08cnZzsm5mqSl4i6bQCAPRGxfHG hRHz49oVg0AYeIqBpxh6/MjhR56d8SY9V6xYR9ShtEJ7UUSUQgtElJgS9XzBYnbMrbd2+eFLb1I3 kQ9cvcyHPnyVMzsbzOZTiLLkErKzjpCyZMkpSrq09dH+b1/c2Pyb1cngzpvPvSOiYpbtngIibdXg B/6d8flBcsE531fzPS++53BDxQ8dZ9c2GIU+grSQUdfCyLWWF1EKVzCJC27sv83J/pS9m4fcfOMu x3em5NpQJ7z4vVf45je+w7Mf+wv89KeebUHTGLkVvTuNbObiIsW1hwY//bErj3399/7rCz9x9trm 8e7LB05E0ioG1Ksi5HNPbF2+9NTZv5azhWLk8UMnbqSUo+Ke8B1VLmHi1ONlmQMc3gWuH9/gtVvX me/XLE4qNDoktbnGOUevX5Ji5qUXX2NyMufRD1/FMCxnzNq8Y9Yq0VjSyeE8Hd+enrcD+ejlj5z9 rcNb03p+WN0LYsumP//lT7P12Mbf08Rfkp5G13cuDAODUZ+twRp9XyLQCfpuJVTv3UOE3ek+09kc jUpuMqnJxDrSVHEVB6pCf9Dj1Veu0ytLHrr2AFVVgXQesBZKdY5MJ3OtD5qIl6tvv3D3qflh/bXe uBedqIChVz9zX6oP6vsvXDvzL1V1VPS89HqFjAd9xh3Xiwoej6pbWVvV47TzhDhEhMIV7C+O2J8e olnI0cgpYxksGbHJS85YZev5bMFDD99P2Q/ElJYAwrJR03AymVGfRD26OY3R8rUc87Q5jt/QZWI4 fO2Y4bn+NcvsOHWpF0odhJIgDkMQBUVBaKlOpKt5OiFWNCCICTvDLXq9Ag2CKx2h7ymGgd64pNcP SEfoOWdC8NzdPWA2mxOC77ysqCiqghePqCzp3sUqpvXL419ZzOsP+c4QeTZPXHhq+x/QmKkiYm1A uZaXUdNukVZA6ZqubtnVaxWhyZGdwVnOrZ/jRvUWYeCwlMjJY7mFBQLVvMasNURdN2TL3TrdKQKi BNHWgCqoQ1TVmkWzed8z5z7uxYlYMnvmV57YUiefkMpERUV0xcyoCIYhHW5R6RqeNuUs1WClDKSc uXrmQY4XxxznCSEFcu6IUkBVUa/U80hsIuO1IaHw5Jy7Jdq1FXDq0OBQL6h3IOLATByfXtGoP6kv K2K2zHIGuHsWFu0sYiAtqE6Jbavv1j1LFhn7AR/aeYTv1M+TSJR4pEuz6gTnlXIQmZ3U3Hf5HL1+ QdPEdiVrDbb0SL8omYYZvlBUkNR2zT/jpe3pDJUnBIplUpD3WPb0IafEPi0+nQoty9Sp4Wx/iycv Ps4LN79HQ6RQjzhwweFCJDceCmH7vk2KIhBzQ2uieyu2ChRIIfjSoUFJMZupbaixjD95qoUDWVb/ aKveWLpF77UQraAtCdjKambLVJTAjCpWXBju8PSlJyhGARlAOQ4U40BvvaC/UdI/E1g/OyQ4T0yJ RFqaYfWeXj2+9ISeI5R+aWbTe8Ly4J8+A1iJvWr2l0pko82ixmoSkEmAUaWas4NtPnrfR9g+s4UN DB0J5VqgXA8Md/psbI5JObb/k9tE1vJuxizjVAg9h+s5ykFAnRqY6CnZNt+FiHcJvVyws0k+JXi+ l/7be+0btj2Qka3j8lixFkY8c+FJrl14mM3NDXSkNIOGnfNbbK+doWrq7v1yZ4zWCy0bakvLPaU3 KvDBWY72w2UQC/ajZkRdgXQqrsEwaRVSVYIGnLbxkjvqNckooObIJFQBE+pcIyJcXb+fK+NL3Jnt sogLtvqbeFHq1GCSO8XTykhmGRGhLArCwFGOQhpsFK4o/T9rweTExEmV7XTotNZbUugSPNlALOE0 sL84ZG9+THCe7f4GG+UY1YCi5Jy6pKfkFEEUsY5iiYBwabizUqzJDWaZZLmNgZxJlki0o6GUM8F7 ilFIzTjq5sW1//by19/8DZ+z5Uf/6gPjc4+f2Z7dnqM9RwrGsChOYehe8lkGdZMbrt+5SVMlVIWD 4pCiLDg7PsPF0Q49V7ZQMkNwiCUM5R5LZ6axFRqjtTxL+C1r0SWM2t9VoCgC4aqX57/0g99BmHmM HE/Sz6aj9Fh9Ei1ENJftIuN+Hy+utb/QMYzDBOoYWdxtyLXhvJBCJvaM67O32Z8ecnnzAjv9LSwb WVKbFCWtgj93hlkaJ+XUQidnEplseQWj3AV1StmCd85teihkdv07t8Sv3zfkgY+f/+Dx9YmiNJgF nxx1No7N2BiMKFXJ2RBtmcEQcsxM35ljDbggaOEIfUfRd0zqGS8vXme2NefK2kXIkERWiYkOlC1M OzJYKkEmW2zhk41kXVHX/Y2gTJvJyeXHL71183f3zFtiJ3j/c7O9yvzAqY8OS+DNaAyOmHBmMCao b10qy4Xg+PaUFI1QOIqBJ/QDzdBRNgUhGtfzLRLGg2uXSBZXNc4SjjkD0kIl2bKETi2ErL2WMGzh hc3cXO6fPPh2/Obd757MJuJ3Prj59MGNydNmpCJlZ7GlX8zwCLVEDt2Mrf4YOWWt0PdM9hcYbX3k J0pvWNKrC9o1AoUIt/wua8WAM+UGKaduJm/dl3XCdijPqRO4nZmatIolW8LLjIFRf0tem/3vdGAu e792afT00e2Zhb6T3IQWbzmDBZCEF1hoxZE6NsoRSEYRcoKi52nqBAbNIpHqOamOWOwa96DkULM/ O2K9GBM7Lyzhv2T8vOy+7F5GOW6mHC2mbR8h0CsDBm6Yh/n76y/85td7f4A2kt3owuDXc85nU52w ZN2ehXSbF13VKBAl4b2n0LYCd16Zn9Tcfn2fsh9WuSE27ejGB4c5cANle3OTYeh3gnZkIEbKuSOG lj4B5nHBnekBe5Nj6mlDM4vEqiELFKXneDqV3t7g7+uBn9x5ew8vKo8Cls1kMa9Zlrtoux+gru0D xBnHfkI59HgcKWeuPXuF/dsnvPPmAUXpO1xnJodzymHg/ENbnLuwyVZ/nSY3bYqRDj6ZNp46qwMc 11PunOzTzBpsYaTayHXbJ6tpjiOvfet/+T/82tfuLNnAbT208Y+h3WUREVKT2x7AKeqkU0LabKqQ PfR9SUqZUHoe+PB5QuGZHs/xzqFOOXf/Fh/5qWtcvHKWcW/YBuap4m9ZKuQuQAEO6wl3jvaI00ie Gc20oZkmmlmkmUYTwdaujHj+Sz/4/AOPXrx18we7TkTMAz8AHmFlH6Oa113zIKhXnGt/is/Mw4J5 KBm4giZGgnM88rHLXH3yIqnJqCi9fiAET4qZKlaI6Ltq2OWRc1siHFZTbh/tY9NEnGeaSUMzT9Tz RKoSsYrJDZyf7tbPvfHtmy/Vk0aBbGa47Yc3LmP8JEJeesLMsNwmKHGuVcAJzjtMAQelD4i1kzZL hnrFFw4f2nF6iokstirCl1XsMsNmyyDCSTPlzvEBeZKIs0R9EqknkeqkYXHcMD+ubHqw0MFG786r //3GL9/63u6NnJKatblQU5O/Kl6WhV9bwokQm0Q1jaRFQ1MnUpVJVUIaqKqGRWzIXfpPZFJOpBSJ ObW01+E7WSZaWl05Z2I375nGBe+cHJGniTjLNCet4POjmunBgsnBnPmkyjFmufv64WtHtybPt/MD We1iulTnN8u1YjP0/F/MKUeRtsSWrhJVr3jvcR2c1At4wQXFO78sWleNh9npRudU//Cus82sB/Nj FpOKOM00J027d3ZcMz+qmE9rcsqIiKkiuebG0RuTL1WTWuSUAlqMgh68cfwv6kn9sjrxGHEpVIqJ pkqkOpGaTI5GakAamDdNl2DyKuUnSyteT2atN3LrhZwzKWdiTuRsTOKc6WxOXhjNLFLPItWkYXZc MZ827d5z24OLeieLw+rfHd0+yX9y00/3Xz2yyZ3Z9flh/VfUu11R8dYqkQBSk4hNIsXlPlbboBCN JsWWYZaKdCVBtNQBqzvzu34jkphWC6wy0rzD/jSxOKmppvWq/u9qPs11/t78oPr3m1fWMLN8eryu KWZrZtHt/vH+y/Wk/ng9bb7pC/U5m7NsyRLRsiVr21zrKt6ufukuWuumnNqCbIlzay2eOB0LrULN cn+sNmKVqGc1i2ndFo2d8GZmWui8Oo5fxODo5mRFMqsYWEIXxIHsVUf1l33fTcpR2FCRSz44LQdB Q9+LK1Rc6USDoD3NvlDBBFvW+LJEONC1lG3Z0FWduQ3eBKQcqScN9UmimjQ2O6ismjei7agTMxNf ujy7Nf9bk5uzr+5fP1LL9p6PIJwe7lo9qaWZxzr0w//Zf+Xovxy9Nf3K1gNrvzXc7r/og94dbvcm /a0iFRvFhgYVy2R1kg20LW3uUdmyt8v3uuVVX5cxnFP8wCNeYpwnF2OSVGdEyGZWO+++P7u1+Pzk 1uI5UdHFtP6RG94/ahAh6tXlmOPZhzapZzWT3TkAj//81WLr4Q1Q+RvrDw7/4dr54SOz/TnBhyQC atLt7LP6nMNy02L1uq1CM2aWyRrJMjozsP0fnnz7xd95/Z+e3J4ejc4OX10c1G+98+J+LPuFHu4d ve+HP37cZyW0K/uhDaZ3qf+X/9Ezm9Wk/rkPfvr+vz6fzT9FltXUjbb7lXY4ufRG7jxj3WDDcIVD jvU//d+vvvLbb//B7lf2Xj/MAKONIfW8pq7ajPu+Mv5YBU4/7URvx4sA6PbVjfzgs5e4/ke3Rx/5 wiMf33x4/GhcxJ9B+aTBUMCWTVhneTMQMdm1yNf7/d7v/vFzb7z0+jfe+ta5rR2++4cviTqR1jd2 6l1//PH/AMIXguL4klWeAAAAAElFTkSuQmCC "
     id="image51487-2"
     x="6.3050847"
     y="10.067797" />
  <path
     style="fill:none;stroke:#008400;stroke-width:1px;stroke-linecap:butt;stroke-linejoin:miter;stroke-opacity:1"
     d="M 18.711864,16.779661 C 19.27428,17.10228 19.68821,17.552617 20.135593,18 c 0.135594,0.135594 0.300412,0.247228 0.40678,0.40678 0.03761,0.05641 -0.04794,0.15545 0,0.20339 0.04794,0.04794 0.15545,-0.04794 0.20339,0 0.04794,0.04794 0,0.135593 0,0.20339 0.135593,0 0.285501,-0.06064 0.406779,0 0.06064,0.03032 0,0.135593 0,0.20339 0,0.203389 -0.09096,0.428252 0,0.610169 0.03032,0.06064 0.155451,-0.04794 0.20339,0 0.09588,0.09588 -0.06064,0.285501 0,0.40678 0.0483,0.09661 0.358477,0.310174 0.40678,0.406779 0.03032,0.06064 -0.03032,0.142751 0,0.20339 0.04288,0.08576 0.160511,0.117633 0.20339,0.20339 0.03095,0.0619 0,0.518571 0,0.610169 0,0.40678 0,0.81356 0,1.220339 0,0.07469 0.0082,0.805375 0,0.81356 -0.09588,0.09588 -0.310901,-0.09588 -0.40678,0 -0.04794,0.04794 0.03032,0.14275 0,0.20339 -0.674559,0.674559 0.09588,-0.191758 -0.20339,0.406779 -0.04288,0.08576 -0.160511,0.117633 -0.20339,0.20339 -0.03678,0.07355 0,0.875484 0,1.016949 0,0.141466 -0.03678,0.943397 0,1.016949 0.04288,0.08576 0.160512,0.117634 0.20339,0.20339 0.06064,0.121279 -0.09588,0.310901 0,0.40678 0.04794,0.04794 0.155451,-0.04794 0.20339,0 0.04794,0.04794 -0.03032,0.142751 0,0.20339 0.04288,0.08576 0.160512,0.117633 0.20339,0.20339 0.03032,0.06064 -0.04794,0.15545 0,0.203389 0.04794,0.04794 0.15545,-0.04794 0.20339,0 0.04794,0.04794 -0.04794,0.155451 0,0.20339 0.04794,0.04794 0.15545,-0.04794 0.20339,0 0.09588,0.09588 -0.06064,0.285502 0,0.40678 0.423229,0.84646 -0.01404,-0.217431 0.406779,0.20339 0.04794,0.04794 -0.03032,0.14275 0,0.20339 0.04288,0.08576 0.135593,0.135593 0.20339,0.203389 0.0678,0.0678 0.135593,0.135594 0.20339,0.20339 0.0678,0 0.15545,-0.04794 0.20339,0 0.09588,0.09588 -0.06064,0.285502 0,0.40678 0.205676,0.411352 0.472001,0.06522 0.610169,0.20339 0.04794,0.04794 -0.04794,0.15545 0,0.20339 0.04794,0.04794 0.155451,-0.04794 0.20339,0 0.420821,0.42082 -0.64307,-0.01645 0.20339,0.406779 0.06064,0.03032 0.135593,0 0.20339,0 0.0678,0.0678 0.117633,0.160512 0.20339,0.20339 0.06064,0.03032 0.15545,-0.04794 0.203389,0 0.04794,0.04794 -0.04794,0.15545 0,0.20339 0.04794,0.04794 0.155451,-0.04794 0.20339,0 0.04794,0.04794 -0.04794,0.15545 0,0.20339 0.04794,0.04794 0.155451,-0.04794 0.20339,0 0.101695,0.101695 -0.101695,0.508474 0,0.610169 0.04794,0.04794 0.15545,-0.04794 0.20339,0 0.04794,0.04794 0,0.135593 0,0.20339 0,0.0678 0,0.135593 0,0.20339 0,0.542373 0,1.084746 0,1.627118 0,0.0678 0,0.135594 0,0.20339 0,0.0678 0.04794,0.155451 0,0.20339 -0.04794,0.04794 -0.15545,-0.04794 -0.20339,0 -0.04794,0.04794 0,0.135593 0,0.20339 0,0.346038 0.07543,0.738129 -0.20339,1.016949 -0.04794,0.04794 -0.15545,-0.04794 -0.20339,0 -0.09588,0.09588 0.09588,0.310901 0,0.40678 -0.04794,0.04794 -0.15545,-0.04794 -0.203389,0 -0.04794,0.04794 0,0.135593 0,0.20339 0,0.04933 -0.0065,0.603628 0,0.610169 0.04794,0.04794 0.135593,0 0.203389,0"
     id="path51548"
     inkscape:connector-curvature="0" />
  <path
     style="fill:none;stroke:#008400;stroke-width:1px;stroke-linecap:butt;stroke-linejoin:miter;stroke-opacity:1"
     d="m 51.254237,24.305085 c -0.271186,0.135593 -0.677966,0.677966 -0.813559,0.40678 -0.135593,-0.271187 1.027951,-0.621172 0.813559,-0.40678 -0.279532,0.279533 -0.708257,0.363216 -1.016949,0.61017 -0.05294,0.04235 0.06064,0.17307 0,0.203389 -0.121278,0.06064 -0.285501,-0.06064 -0.406779,0 -0.06064,0.03032 0.03032,0.142751 0,0.20339 -0.224853,0.449706 -0.126233,0.06312 -0.40678,0.20339 -0.244068,0.122034 -0.366102,0.488136 -0.61017,0.61017 -0.500939,0.250469 0.183607,-0.590387 -0.610169,0.203389 -0.04794,0.04794 0.04794,0.155451 0,0.20339 -0.04794,0.04794 -0.139072,-0.02144 -0.20339,0 -0.143818,0.04794 -0.280643,0.119299 -0.40678,0.20339 -0.07978,0.05318 -0.135593,0.135593 -0.203389,0.20339 -0.0678,0.0678 -0.160512,0.117633 -0.20339,0.20339 -0.03032,0.06064 0.04794,0.15545 0,0.20339 -0.107196,0.107195 -0.280643,0.119298 -0.40678,0.203389 -0.07978,0.05318 -0.117633,0.160512 -0.20339,0.20339 -0.06064,0.03032 -0.15545,-0.04794 -0.20339,0 -0.04794,0.04794 0.04794,0.155451 0,0.20339 -0.04794,0.04794 -0.15545,-0.04794 -0.203389,0 -0.04794,0.04794 0.03032,0.142751 0,0.20339 -0.04288,0.08576 -0.160512,0.117633 -0.20339,0.20339 -0.01135,0.0227 -0.01135,0.994247 0,1.016949 0.04288,0.08576 0.160511,0.117633 0.20339,0.20339 0.06064,0.121278 -0.06064,0.285501 0,0.406779 0.04288,0.08576 0.160511,0.117634 0.203389,0.20339 0.06064,0.121278 -0.09588,0.310901 0,0.40678 0.04794,0.04794 0.155451,-0.04794 0.20339,0 0.09588,0.09588 -0.06064,0.285501 0,0.40678 0.42323,0.846459 -0.01404,-0.217431 0.40678,0.203389 0.09588,0.09588 -0.06064,0.285502 0,0.40678 0.08576,0.171513 0.321023,0.235266 0.40678,0.40678 0.03032,0.06064 0,0.135593 0,0.20339 0,0.406779 0,0.813559 0,1.220338 0,0.0678 0.04794,0.155451 0,0.20339 -0.04794,0.04794 -0.155451,-0.04794 -0.20339,0 -0.09588,0.09588 0.06064,0.285502 0,0.40678 -0.04288,0.08576 -0.135593,0.135593 -0.20339,0.20339 -0.0678,0.0678 -0.117633,0.160511 -0.20339,0.20339 -0.06064,0.03032 -0.142751,-0.03032 -0.20339,0 -0.08576,0.04288 -0.135593,0.135593 -0.20339,0.203389 -0.0678,0.0678 -0.160511,0.117634 -0.203389,0.20339 -0.03032,0.06064 0.04794,0.155451 0,0.20339 -0.04794,0.04794 -0.142751,-0.03032 -0.20339,0 -0.08576,0.04288 -0.117633,0.160512 -0.20339,0.20339 -0.06064,0.03032 -0.15545,-0.04794 -0.20339,0 -0.420821,0.420821 0.64307,-0.01645 -0.20339,0.40678 -0.280547,0.140273 -0.181926,-0.246317 -0.406779,0.203389 -0.03032,0.06064 0.04794,0.155451 0,0.20339 -0.09588,0.09588 -0.285502,-0.06064 -0.40678,0 -0.08576,0.04288 -0.117633,0.160512 -0.20339,0.20339 -0.06064,0.03032 -0.142751,-0.03032 -0.20339,0 -0.05039,0.0252 -0.356389,0.381584 -0.406779,0.40678 -0.06064,0.03032 -0.142751,-0.03032 -0.20339,0 -0.08576,0.04288 -0.117633,0.160511 -0.20339,0.20339 -0.06064,0.03032 -0.142751,-0.03032 -0.20339,0 -0.08576,0.04288 -0.135593,0.135593 -0.20339,0.203389 -0.0678,0.0678 -0.160511,0.117634 -0.20339,0.20339 -0.03032,0.06064 0.04794,0.155451 0,0.20339 -0.09588,0.09588 -0.285501,-0.06064 -0.406779,0 -0.08576,0.04288 -0.117633,0.160512 -0.20339,0.20339 -0.06064,0.03032 -0.15545,-0.04794 -0.20339,0 -0.04794,0.04794 0,0.135593 0,0.20339 0,0.0678 0,0.135593 0,0.20339 0,0.949152 0,1.898305 0,2.847457 0,0.04933 0.0065,0.603629 0,0.61017 -0.06827,0.06827 -0.338508,-0.06827 -0.406779,0 -0.04794,0.04794 0.04794,0.15545 0,0.20339 -0.04794,0.04794 -0.155451,-0.04794 -0.20339,0 C 41.016949,42.067797 41.627119,42 41.084746,42"
     id="path51550"
     inkscape:connector-curvature="0" />
  <path
     style="fill:none;stroke:#008400;stroke-width:1px;stroke-linecap:butt;stroke-linejoin:miter;stroke-opacity:1"
     d="m 19.932203,55.220339 c 0.271187,-0.0678 0.745763,-0.474576 0.81356,-0.203389 0.0678,0.271186 -0.93857,0.453411 -0.81356,0.203389 0.870222,-1.740443 0.656764,-0.422311 1.220339,-0.610169 0.143819,-0.04794 0.271187,-0.135593 0.40678,-0.20339 0.135593,-0.0678 0.280643,-0.119298 0.40678,-0.20339 0.07978,-0.05318 0.112431,-0.17307 0.20339,-0.20339 0.202182,-0.06739 0.844126,0.08641 1.016949,0 0.06064,-0.03032 -0.06064,-0.17307 0,-0.203389 0.925888,0 0.01163,0.09588 0.610169,-0.20339 0.06064,-0.03032 0.135593,0 0.20339,0 0.0678,0 0.135593,0 0.20339,0 0.338983,0 0.677966,0 1.016949,0 0.949153,0 1.898305,0 2.847458,0 0.0678,0 0.135593,0 0.20339,0 0.0678,0 0.15545,0.04794 0.203389,0 0.04794,-0.04794 -0.04794,-0.155451 0,-0.20339 0.101695,-0.101695 0.508475,0.101695 0.61017,0 0.04794,-0.04794 -0.04794,-0.155451 0,-0.20339 0.04794,-0.04794 0.15545,0.04794 0.20339,0 0.04794,-0.04794 -0.04794,-0.15545 0,-0.20339 0.09588,-0.09588 0.3109,0.09588 0.406779,0 0.04794,-0.04794 -0.04794,-0.15545 0,-0.20339 0.04794,-0.04794 0.155451,0.04794 0.20339,0 0.09588,-0.09588 -0.06064,-0.285501 0,-0.406779 0.04288,-0.08576 0.160512,-0.117633 0.20339,-0.20339 0.03032,-0.06064 -0.04794,-0.15545 0,-0.20339 0.04794,-0.04794 0.15545,0.04794 0.20339,0 0.04794,-0.04794 -0.03032,-0.142751 0,-0.20339 0.04288,-0.08576 0.160511,-0.117633 0.20339,-0.20339 0.06064,-0.121278 -0.06064,-0.285501 0,-0.406779 0.04288,-0.08576 0.160511,-0.117633 0.203389,-0.20339 0.04032,-0.08064 -0.04158,-0.568589 0,-0.61017 0.04794,-0.04794 0.155451,0.04794 0.20339,0 0.04794,-0.04794 -0.04794,-0.15545 0,-0.203389 0.04794,-0.04794 0.155451,0.04794 0.20339,0 0.04794,-0.04794 0,-0.135594 0,-0.20339 0,-0.40678 0,-0.81356 0,-1.220339 0,-0.0678 -0.04794,-0.155451 0,-0.20339 0.04794,-0.04794 0.155451,0.04794 0.20339,0 0.09588,-0.09588 -0.06064,-0.285501 0,-0.40678 0.42323,-0.846459 -0.01404,0.217431 0.40678,-0.20339 0.06645,-0.06645 -0.06645,-0.340329 0,-0.406779 0.04794,-0.04794 0.15545,0.04794 0.203389,0 0.04794,-0.04794 -0.04794,-0.155451 0,-0.20339 0.04794,-0.04794 0.135594,0 0.20339,0 0.0678,0 0.135594,0 0.20339,0 0.0678,0 0.135593,0 0.20339,0 0.0678,0 0.15545,0.04794 0.20339,0 0.04794,-0.04794 -0.04794,-0.15545 0,-0.20339 0.06721,-0.06721 0.339565,0.06721 0.406779,0 0.07005,-0.07005 -0.07005,-0.336727 0,-0.40678 0.04794,-0.04794 0.155451,0.04794 0.20339,0 0.04794,-0.04794 -0.03032,-0.14275 0,-0.203389 0.04288,-0.08576 0.160512,-0.117634 0.20339,-0.20339 0.06064,-0.121278 -0.06064,-0.285502 0,-0.40678 0.04288,-0.08576 0.160512,-0.117633 0.20339,-0.20339 0.03032,-0.06064 -0.04794,-0.15545 0,-0.20339 0.04794,-0.04794 0.15545,0.04794 0.20339,0 0.09588,-0.09588 -0.06064,-0.285501 0,-0.406779 0.04288,-0.08576 0.160511,-0.117633 0.20339,-0.20339 0.05517,-0.110336 -0.05565,-0.757907 0,-0.813559 0.04794,-0.04794 0.15545,0.04794 0.203389,0 0.04794,-0.04794 0,-0.135594 0,-0.20339 0,-0.40678 0,-0.813559 0,-1.220339 0,-0.0678 0,-0.135593 0,-0.20339 0,-0.0678 -0.0678,-0.20339 0,-0.20339 0.299269,0 -0.471169,0.674559 0.20339,0"
     id="path51552"
     inkscape:connector-curvature="0" />
  <path
     style="fill:#ff8080;fill-opacity:1;stroke:#800000;stroke-width:0.73283355999999999;stroke-opacity:1"
     d="m 47.124178,14.519186 0,22.004631 -7.681263,0 11.215229,18.772145 0.175237,0 11.215229,-18.772145 -7.681263,0 0,-22.004631 -7.243169,0 z"
     id="rect52062"
     inkscape:connector-curvature="0" />
</svg>
